draft
…
find.keys(college)

Warning: Using an external vector in selections was deprecated in tidyselect 1.1.0.
ℹ Please use `all_of()` or `any_of()` instead.
  # Was:
  data %>% select(combo)

  # Now:
  data %>% select(all_of(combo))

See <https://tidyselect.r-lib.org/reference/faq-external-vector.html>.

# A tibble: 134 × 2
   key_size columns         
      <int> <chr>           
 1        1 unitid          
 2        2 unitid, instnm  
 3        2 unitid, city    
 4        2 unitid, stabbr  
 5        2 unitid, highdeg 
 6        2 unitid, control 
 7        2 unitid, region  
 8        2 unitid, locale  
 9        2 unitid, ccbasic 
10        2 unitid, ccsizset
# ℹ 124 more rows

find.keys(counties, max_size = 2)

# A tibble: 141 × 2
   key_size columns      
      <int> <chr>        
 1        1 RN           
 2        1 totpop       
 3        1 enroll       
 4        1 civlabor     
 5        1 unemp        
 6        2 RN, state    
 7        2 RN, county   
 8        2 RN, landarea 
 9        2 RN, totpop   
10        2 RN, physician
# ℹ 131 more rows
…
  return(list(
    message = "TRUE: Dataset is in First Normal Form", #is this message necessary?
    candidate_keys = keys
  ))
}

first.normal(college)

$message
[1] "TRUE: Dataset is in First Normal Form"

$candidate_keys
# A tibble: 134 × 2
   key_size columns         
      <int> <chr>           
 1        1 unitid          
 2        2 unitid, instnm  
 3        2 unitid, city    
 4        2 unitid, stabbr  
 5        2 unitid, highdeg 
 6        2 unitid, control 
 7        2 unitid, region  
 8        2 unitid, locale  
 9        2 unitid, ccbasic 
10        2 unitid, ccsizset
# ℹ 124 more rows
…
